<svg width="24" height="24" viewBox="0 0 24 24" fill="none" xmlns="http://www.w3.org/2000/svg">
<path d="M8 2L4 6L7 6L7 21L9 21L9 6L12 6L8 2Z" fill="#706C64"/>
<path d="M16 22L20 18L17 18L17 3L15 3L15 18L12 18L16 22Z" fill="#706C64"/>
</svg>
